                   PIZZARIA DO CHICO
           Rua Planalto, 54 | Sao Paulo - SP
               CNPJ: 00.000.000/0001-00
  ---------------------------------------------------
                   08/02/2017 09:54
 ****************************************************
                   CUPOM NAO FISCAL
 ****************************************************
                         Itens
Cod. Produto                    V. UN Qtd  Total       
0    1/2 MUSSARELA 1/2 CALABRES 27.00   1  27.00       
-----------------------------------------------------
                                   Sub-total: 27

Cliente: 
End.: 
Vendedor: Chico
--
 
 
 
 
.